{
  "random-forest": {
    "random_state": 42,
    "n_estimators": 200,
    "max_features": "auto",
    "max_depth" : 8,
    "criterion" :"gini"
  },
  "knn": {
    "n_neighbors": 5,
    "weights": "uniform",
    "algorithm": "auto",
    "leaf_size": 30,
    "metric": "minkowski",
    "n_jobs": null
  },
  "svc": {
    "C": 1.0,
    "kernel": "rbf",
    "degree":3,
    "gamma": "scale",
    "probability": false,
    "cache_size": 200,
    "max_iter": -1,
    "decision_function_shape": "ovr",
    "random_state": null
  },
  "logistic-regression": {
    "penalty": "l2",
    "dual": false,
    "C": 1.0,
    "fit_intercept": true,
    "intercept_scaling": 1,
    "class_weight": null,
    "random_state": null,
    "solver": "lbfgs",
    "max_iter": 100,
    "multi_class": "auto",
    "n_jobs": null,
    "l1_ratio": null
  }
}